pipe/test.vcd
$date
  Sat Jun  8 13:40:17 2019
$end
$version
  GHDL v0
$end
$timescale
  1 fs
$end
$scope module standard $end
$upscope $end
$scope module std_logic_1164 $end
$upscope $end
$scope module numeric_std $end
$upscope $end
$scope module textio $end
$upscope $end
$scope module std_logic_textio $end
$upscope $end
$scope module pipetb $end
$var reg 8 ! in1[7:0] $end
$var reg 8 " out1[7:0] $end
$var reg 1 # clk $end
$var reg 1 $ rst $end
$var reg 1 % write_on $end
$scope module top $end
$var reg 1 & clk $end
$var reg 1 ' rst $end
$var reg 8 ( rin[7:0] $end
$var reg 8 ) rout[7:0] $end
$comment conn is not handled $end
$scope module flopchain(0) $end
$scope module midd $end
$var reg 1 * clk $end
$var reg 1 + rst $end
$var reg 8 , rin[7:0] $end
$var reg 8 - rout[7:0] $end
$upscope $end
$upscope $end
$scope module flopchain(1) $end
$scope module midd $end
$var reg 1 . clk $end
$var reg 1 / rst $end
$var reg 8 0 rin[7:0] $end
$var reg 8 1 rout[7:0] $end
$upscope $end
$upscope $end
$scope module flopchain(2) $end
$scope module midd $end
$var reg 1 2 clk $end
$var reg 1 3 rst $end
$var reg 8 4 rin[7:0] $end
$var reg 8 5 rout[7:0] $end
$upscope $end
$upscope $end
$upscope $end
$upscope $end
$enddefinitions $end
#0
bUUUUUUUU !
bUUUUUUUU "
0#
1$
0%
0&
1'
bUUUUUUUU (
bUUUUUUUU )
0*
1+
bUUUUUUUU ,
bUUUUUUUU -
0.
1/
bUUUUUUUU 0
bUUUUUUUU 1
02
13
bUUUUUUUU 4
bUUUUUUUU 5
#5000000
b00000000 !
b00000000 "
1#
1%
1&
b00000000 (
b00000000 )
1*
b00000000 ,
b00000000 -
1.
b00000000 0
b00000000 1
12
b00000000 4
b00000000 5
#10000000
0#
0$
0&
0'
0*
0+
0.
0/
02
03
#15000000
b00000001 !
1#
1&
b00000001 (
1*
b00000001 ,
1.
12
#20000000
0#
0&
0*
0.
02
#25000000
b00000010 !
1#
1&
b00000010 (
1*
b00000010 ,
b00000001 -
1.
b00000001 0
12
#30000000
0#
0&
0*
0.
02
#35000000
b00000100 !
1#
1&
b00000100 (
1*
b00000100 ,
b00000010 -
1.
b00000010 0
b00000001 1
12
b00000001 4
#40000000
0#
0&
0*
0.
02
#45000000
b00001000 !
b00000001 "
1#
1&
b00001000 (
b00000001 )
1*
b00001000 ,
b00000100 -
1.
b00000100 0
b00000010 1
12
b00000010 4
b00000001 5
#50000000
0#
0&
0*
0.
02
#55000000
b00010000 !
b00000010 "
1#
1&
b00010000 (
b00000010 )
1*
b00010000 ,
b00001000 -
1.
b00001000 0
b00000100 1
12
b00000100 4
b00000010 5
#60000000
0#
1$
0&
1'
0*
1+
0.
1/
02
13
#65000000
b00100000 !
b00000000 "
1#
1&
b00100000 (
b00000000 )
1*
b00100000 ,
b00000000 -
1.
b00000000 0
b00000000 1
12
b00000000 4
b00000000 5
#70000000
0#
0$
0&
0'
0*
0+
0.
0/
02
03
#75000000
b01000000 !
1#
1&
b01000000 (
1*
b01000000 ,
b00100000 -
1.
b00100000 0
12
#80000000
0#
0&
0*
0.
02
#85000000
b10000000 !
1#
1&
b10000000 (
1*
b10000000 ,
b01000000 -
1.
b01000000 0
b00100000 1
12
b00100000 4
#90000000
0#
0&
0*
0.
02
#95000000
b00000000 !
b00100000 "
1#
1&
b00000000 (
b00100000 )
1*
b00000000 ,
b10000000 -
1.
b10000000 0
b01000000 1
12
b01000000 4
b00100000 5
#100000000
0#
0&
0*
0.
02
#105000000
b01000000 "
1#
1&
b01000000 )
1*
b00000000 -
1.
b00000000 0
b10000000 1
12
b10000000 4
b01000000 5
#110000000
0#
0&
0*
0.
02
#115000000
b10000000 "
1#
1&
b10000000 )
1*
1.
b00000000 1
12
b00000000 4
b10000000 5
#120000000
0#
1$
0&
1'
0*
1+
0.
1/
02
13
#125000000
b00000000 "
1#
1&
b00000000 )
1*
1.
12
b00000000 5
#130000000
0#
0$
0&
0'
0*
0+
0.
0/
02
03
#135000000
1#
1&
1*
1.
12
#140000000
0#
0&
0*
0.
02
#145000000
1#
1&
1*
1.
12
#150000000
0#
0&
0*
0.
02
#155000000
1#
1&
1*
1.
12
#160000000
0#
0&
0*
0.
02
#165000000
1#
1&
1*
1.
12
#170000000
0#
0&
0*
0.
02
#175000000
1#
1&
1*
1.
12
#180000000
0#
1$
0&
1'
0*
1+
0.
1/
02
13
#185000000
1#
1&
1*
1.
12
#190000000
0#
0$
0&
0'
0*
0+
0.
0/
02
03
#195000000
1#
1&
1*
1.
12
#200000000
0#
0&
0*
0.
02
#205000000
1#
1&
1*
1.
12
#210000000
0#
0&
0*
0.
02
#215000000
1#
1&
1*
1.
12
#220000000
0#
0&
0*
0.
02
#225000000
1#
1&
1*
1.
12
#230000000
0#
0&
0*
0.
02
#235000000
1#
1&
1*
1.
12
#240000000
0#
1$
0&
1'
0*
1+
0.
1/
02
13
#245000000
1#
1&
1*
1.
12
#250000000
0#
0$
0&
0'
0*
0+
0.
0/
02
03
#255000000
1#
1&
1*
1.
12
#260000000
0#
0&
0*
0.
02
#265000000
1#
1&
1*
1.
12
#270000000
0#
0&
0*
0.
02
#275000000
1#
1&
1*
1.
12
#280000000
0#
0&
0*
0.
02
#285000000
1#
1&
1*
1.
12
#290000000
0#
0&
0*
0.
02
#295000000
1#
1&
1*
1.
12
#300000000
0#
1$
0&
1'
0*
1+
0.
1/
02
13
